<svg xmlns="http://www.w3.org/2000/svg" height="200" width="200" version="1.1" viewBox="200 200 200 200">
    <g transform="translate(0 -452.36)">
        <path class="ttt-circle"
              d="m293.45 702.75c-1.8962 0.001-3.795-0.18284-5.6688 0.19557-1.2879 0.26008-2.9748 0.79099-4.1965 1.1499-0.94741 0.2996-1.903 0.57437-2.8422 0.89877-2.2424 0.77456-4.4147 1.6336-6.5582 2.6554-1.1215 0.53464-4.3802 2.3447-3.3108 1.7122 8.8527-5.2353 7.3986-4.3248 3.6904-1.5002-4.5706 3.8279-7.6882 8.8424-10.384 14.077-3.1341 6.4534-5.4067 13.337-6.7242 20.393-0.28669 1.5351-0.46928 3.0879-0.70391 4.6318-0.69539 6.8567-0.23044 13.808 2.2268 20.296 0.45184 1.1931 1.0232 2.3374 1.5348 3.5061 3.4998 6.9025 8.704 12.569 14.561 17.526 7.1939 5.6023 14.888 7.1396 23.686 8.4481 7.8487 0.77886 15.786 1.4201 23.678 0.96288 1.6661-0.0964 3.3263-0.27735 4.9895-0.41602 6.213-0.52347 11.795-3.0192 17.184-5.9987 1.1351-0.6276-4.1357 2.8077-3.515 1.6688 0.91958-1.6875 3.0879-2.2947 4.5413-3.5521 1.2931-1.1187 2.4578-2.3776 3.6867-3.5664 4.5101-5.1161 7.0423-9.6675 8.1412-16.343 0.75287-4.8204-0.85759-9.3839-2.4096-13.872-2.6944-7.6734-5.8348-15.175-9.3435-22.509-2.6144-4.8541-5.5742-9.5555-9.2779-13.662-1.934-2.1444-3.1046-3.1036-5.2361-5.0287-6.1586-5.2374-13.465-7.5749-21.234-9.1823-5.5965-1.2066-11.313-1.5894-17.02-1.7726-3.8881-0.43977-7.4841 0.80344-11.135 1.9094l8.8017-6.7918c3.6926-1.0765 7.3608-2.0115 11.254-1.5453 5.6976 0.26153 11.403 0.75278 16.973 2.0411 7.783 1.7906 15.377 4.3676 21.544 9.655 2.2371 2.0557 3.2592 2.8866 5.2792 5.1837 3.7049 4.2132 6.6899 8.9958 9.34 13.923 3.5569 7.3429 6.6986 14.877 9.5758 22.511 1.68 4.6022 3.5178 9.2998 2.7882 14.288-1.0403 6.9964-3.6604 11.751-8.2825 17.164-1.245 1.235-2.4238 2.5406-3.7351 3.705-5.9413 5.2757-11.23 7.9375-18.799 12.22-5.4535 3.0851-11.372 5.2529-17.63 5.8425-1.6885 0.13305-3.3739 0.31349-5.0655 0.39921-7.9252 0.40163-15.899-0.26913-23.769-1.1295-8.9689-1.41-16.894-3.0441-24.186-8.834-5.9015-5.1457-11.151-10.948-14.763-17.966-0.532-1.2002-1.1282-2.3738-1.596-3.6005-2.5317-6.6384-2.9933-13.776-2.3317-20.796 1.2914-8.7635 3.2522-17.182 7.0667-25.231 2.6491-5.411 5.651-10.467 10.209-14.521 0.85326-0.69214 1.6287-1.4932 2.5598-2.0764 8.0323-5.0314 16.08-9.8491 25.239-12.424 1.6415-0.46078 2.7624-0.84022 4.4162-1.0853 1.9344-0.28663 3.8987-0.0618 5.8427-0.16692l-9.0914 6.6053z"/>
    </g>
</svg>
